"umpire_HP","games_called","at_bats","walks","strikeouts","homeruns","tot_runs"
"Adam Hamari",38,2780,167,570,85,327
"Adrian Johnson",30,2266,161,479,50,238
"Alan Porter",28,2150,179,425,64,251
"Alfonso Marquez",28,2142,164,419,53,242
"Andy Fletcher",31,2343,193,454,70,304
"Angel Hernandez",32,2409,148,500,77,280
"Anthony Johnson",1,77,11,22,3,6
"Ben May",22,1638,129,364,44,145
"Bill Miller",31,2423,144,528,54,276
"Bill Welke",28,2115,158,420,47,251
"Bob Davidson",30,2354,162,456,71,287
"Brian Gorman",20,1492,99,313,32,156
"Brian Knight",30,2287,171,467,64,279
"Brian O'Nora",26,1936,124,403,46,212
"Bruce Dreckman",21,1622,118,314,53,192
"Carlos Torres",6,473,37,88,7,36
"CB Bucknor",28,2063,136,436,45,220
"Chad Fairchild",27,2047,154,416,47,231
"Chris Conroy",29,2271,168,441,51,236
"Chris Guccione",31,2357,156,411,64,259
"Chris Segal",28,2155,149,438,38,221
"Clint Fagan",31,2299,169,489,58,252
"Cory Blaser",32,2478,183,508,59,285
"D.J. Reyburn",21,1533,107,329,37,162
"Dale Scott",27,2062,144,408,57,255
"Dan Bellino",31,2333,159,487,70,259
"Dan Iassogna",32,2387,164,485,50,247
"Dana DeMuth",25,1892,131,395,53,223
"David Rackley",28,2083,164,440,53,209
"Doug Eddings",31,2314,136,469,55,238
"Ed Hickox",27,2039,153,353,61,239
"Eric Cooper",28,2143,147,436,65,283
"Fieldin Culbreth",28,2164,164,432,53,213
"Gabe Morales",33,2484,150,529,68,318
"Gary Cederstrom",28,2137,154,432,56,246
"Gerry Davis",29,2202,162,467,57,254
"Greg Gibson",29,2294,184,449,55,214
"Hunter Wendelstedt",29,2127,155,471,60,209
"James Hoye",27,2097,163,429,49,241
"Jeff Kellogg",24,1853,152,312,50,213
"Jeff Nelson",32,2443,180,498,71,282
"Jerry Layne",12,873,44,144,20,84
"Jerry Meals",32,2493,182,483,68,319
"Jim Joyce",22,1666,130,341,47,199
"Jim Reynolds",32,2432,183,460,48,279
"Jim Wolf",29,2143,145,395,54,256
"Joe West",35,2702,191,568,87,329
"John Hirschbeck",30,2257,172,458,66,248
"John Tumpane",29,2122,149,440,50,218
"Jordan Baker",31,2319,174,466,67,230
"Kerwin Danley",25,1914,128,368,54,228
"Lance Barksdale",29,2173,174,394,73,248
"Lance Barrett",29,2195,143,441,55,237
"Larry Vanover",30,2256,181,463,63,248
"Laz Diaz",31,2458,189,453,68,310
"Manny Gonzalez",33,2576,185,502,78,337
"Marcus Pattillo",5,378,30,90,9,35
"Mark Carlson",30,2327,175,445,62,265
"Mark Ripperger",28,2127,112,478,62,224
"Mark Wegner",31,2374,188,434,77,280
"Marty Foster",29,2252,150,473,56,230
"Marvin Hudson",32,2388,164,505,59,250
"Mike DiMuro",16,1252,97,234,37,126
"Mike Estabrook",30,2268,159,475,71,248
"Mike Everitt",30,2228,159,461,65,284
"Mike Muchlinski",30,2194,131,489,58,220
"Mike Winters",27,2024,152,423,48,204
"Pat Hoberg",23,1684,111,363,46,179
"Paul Emmel",31,2349,174,468,54,262
"Paul Nauert",26,1895,141,384,47,193
"Paul Schrieber",29,2184,153,449,66,273
"Phil Cuzzi",29,2175,143,468,64,252
"Quinn Wolcott",24,1805,135,391,51,206
"Rob Drake",29,2203,167,480,62,237
"Ron Kulpa",31,2302,150,489,68,260
"Ryan Blakney",21,1698,110,345,53,210
"Sam Holbrook",26,1981,146,374,48,221
"Scott Barry",21,1564,103,316,59,179
"Sean Barber",12,890,69,180,24,101
"Stu Scheurwater",4,306,25,48,9,45
"Ted Barrett",32,2430,180,508,55,252
"Tim Timmons",30,2311,173,501,71,266
"Tim Welke",28,2162,147,457,65,253
"Toby Basner",21,1540,95,309,30,150
"Todd Tichenor",25,1868,139,382,44,203
"Tom Hallion",26,1975,154,356,51,241
"Tom Woodring",13,1022,91,177,29,122
"Tony Randazzo",30,2219,135,469,54,239
"Tripp Gibson III",30,2259,166,468,56,243
"Vic Carapazza",30,2364,152,500,49,236
"Will Little",23,1702,118,342,50,187
